…
#### Write a description of the dataset, noting the size and structure of the data, describing some key variables, and indicating the extent to which missing data is an issue.

``` r
library(p8105.datasets)
data("ny_noaa")
```

``` r
ny_noaa %>%
  group_by(id) %>%
  summarize(n_obs = n()) 
```

    ## # A tibble: 747 × 2
    ##    id          n_obs
    ##    <chr>       <int>
    ##  1 US1NYAB0001  1157
    ##  2 US1NYAB0006   852
    ##  3 US1NYAB0010   822
    ##  4 US1NYAB0016   214
    ##  5 US1NYAB0017   459
    ##  6 US1NYAB0021   365
    ##  7 US1NYAB0022   273
    ##  8 US1NYAB0023   365
    ##  9 US1NYAB0025   215
    ## 10 US1NYAL0002   549
    ## # … with 737 more rows
…
Below is a table summarizing the number of items ordered from aisle. In
total, there are 134 aisles, with fresh vegetables and fresh fruits
holding the most items ordered by far.

``` r
instacart %>% 
  count(aisle) %>% 
  arrange(desc(n))
```

    ## # A tibble: 134 × 2
    ##    aisle                              n
    ##    <chr>                          <int>
    ##  1 fresh vegetables              150609
    ##  2 fresh fruits                  150473
    ##  3 packaged vegetables fruits     78493
    ##  4 yogurt                         55240
    ##  5 packaged cheese                41699
    ##  6 water seltzer sparkling water  36617
    ##  7 milk                           32644
    ##  8 chips pretzels                 31269
    ##  9 soy lactosefree                26240
    ## 10 bread                          23635
    ## # … with 124 more rows
…
